// EVENT 0347
Name "Spider Princess Event"

Wait(60)
PictureDisplay(5,"80_kumonomiko_st01",0,0,0,0,100,100,0,0)
PictureMove(5,null,0,0,0,0,100,100,255,0,30,true)
ShowMessageFace("kumonomiko_fc1",0,0,2,1)
ShowMessage("\\n<蜘蛛之皇女>そういうわけで、妾が女王となろう。")
ShowMessage("さあ、お主の票を妾に投じるのだ。")
PictureDisplay(5,"80_kumonomiko_st01",0,0,-160,0,100,100,255,0)
PictureDisplay(6,"80_queenbee_st03",0,0,160,0,100,100,255,0)
ShowMessageFace("queenbee_fc1",2,0,2,2)
ShowMessage("\\n<クィーンビー>お断りだ……")
ShowMessage("なぜ自分が、女王位から放逐されたか忘れたのか？")
ShowMessageFace("queenbee_fc1",2,0,2,3)
ShowMessage("\\n<クィーンビー>昆虫族全体の事を顧みず、暴虐を続け……")
ShowMessage("女王失格の烙印を受けたのではないか！")
ShowMessageFace("kumonomiko_fc1",0,0,2,4)
ShowMessage("\\n<蜘蛛之皇女>あれから妾は、心を入れ替えたのだ。")
ShowMessage("なあ、婿殿？")
ShowChoices(strings("その通りだ","そうは思わない"),0)
IfPlayerPicksChoice(0,"その通りだ")
 ShowMessageFace("queenbee_fc1",2,0,2,5)
 ShowMessage("\\n<クィーンビー>勇者ルカの言葉とはいえ、そればかりは信じられぬな……")
 ShowMessage("蜘蛛之皇女が女王になるなど、妾は絶対に認めんぞ！")
 0()
IfPlayerPicksChoice(1,"そうは思わない")
 ShowMessageFace("kumonomiko_fc1",2,0,2,6)
 ShowMessage("\\n<蜘蛛之皇女>なんと、ここで妾を突き放すとは……")
 ShowMessage("さすが婿殿、これも恋の駆け引きか。")
 ShowMessageFace("queenbee_fc1",2,0,2,7)
 ShowMessage("\\n<クィーンビー>何が恋の駆け引きだ、婚約者にさえ信用されておらんではないか！")
 ShowMessage("お前が女王になるなど、妾は絶対に認めんぞ！")
 If(0,6,0)
  ShowMessageFace("sonia_fc2",6,0,2,8)
  ShowMessage("\\n<Sonya>婚約者じゃない！")
  0()
 EndIf()
 0()
404()
ShowMessageFace("kumonomiko_fc1",2,0,2,9)
ShowMessage("\\n<蜘蛛之皇女>認めんならば、何とする！")
ShowMessage("力に訴えてでも、抗するというのか！？")
ShowMessageFace("queenbee_fc1",2,0,2,10)
ShowMessage("\\n<クィーンビー>よかろう！")
ShowMessage("この身を賭してでも、お前の女王着任を阻止してくれる！")
PictureClear(5)
PictureClear(6)
241(bytes(0x04,0x08,0x6f,0x3a,0x0d,0x52,0x50,0x47,0x3a,0x3a,0x42,0x47,0x4d,0x08,0x3a,0x0a,0x40,0x6e,0x61,0x6d,0x65,0x49,0x22,0x0a,0x6b,0x69,0x6b,0x69,0x32,0x06,0x3a,0x06,0x45,0x54,0x3a,0x0c,0x40,0x76,0x6f,0x6c,0x75,0x6d,0x65,0x69,0x69,0x3a,0x0b,0x40,0x70,0x69,0x74,0x63,0x68,0x69,0x69))
ShowMessageFace("",0,0,2,11)
ShowMessage("\\n<？？？>ならば、妾も加勢しましょう……")
250(bytes(0x04,0x08,0x6f,0x3a,0x0c,0x52,0x50,0x47,0x3a,0x3a,0x53,0x45,0x08,0x3a,0x0a,0x40,0x6e,0x61,0x6d,0x65,0x49,0x22,0x0d,0x6d,0x6f,0x6e,0x5f,0x77,0x61,0x72,0x70,0x06,0x3a,0x06,0x45,0x54,0x3a,0x0b,0x40,0x70,0x69,0x74,0x63,0x68,0x69,0x69,0x3a,0x0c,0x40,0x76,0x6f,0x6c,0x75,0x6d,0x65,0x69,0x55))
ChangeSwitch(32,32,0)
205(50,bytes(0x04,0x08,0x6f,0x3a,0x13,0x52,0x50,0x47,0x3a,0x3a,0x4d,0x6f,0x76,0x65,0x52,0x6f,0x75,0x74,0x65,0x09,0x3a,0x0c,0x40,0x72,0x65,0x70,0x65,0x61,0x74,0x46,0x3a,0x0f,0x40,0x73,0x6b,0x69,0x70,0x70,0x61,0x62,0x6c,0x65,0x46,0x3a,0x0a,0x40,0x77,0x61,0x69,0x74,0x54,0x3a,0x0a,0x40,0x6c,0x69,0x73,0x74,0x5b,0x07,0x6f,0x3a,0x15,0x52,0x50,0x47,0x3a,0x3a,0x4d,0x6f,0x76,0x65,0x43,0x6f,0x6d,0x6d,0x61,0x6e,0x64,0x07,0x3a,0x0a,0x40,0x63,0x6f,0x64,0x65,0x69,0x07,0x3a,0x10,0x40,0x70,0x61,0x72,0x61,0x6d,0x65,0x74,0x65,0x72,0x73,0x5b,0x00,0x6f,0x3b,0x0a,0x07,0x3b,0x0b,0x69,0x00,0x3b,0x0c,0x5b,0x00))
505(bytes(0x04,0x08,0x6f,0x3a,0x15,0x52,0x50,0x47,0x3a,0x3a,0x4d,0x6f,0x76,0x65,0x43,0x6f,0x6d,0x6d,0x61,0x6e,0x64,0x07,0x3a,0x0a,0x40,0x63,0x6f,0x64,0x65,0x69,0x07,0x3a,0x10,0x40,0x70,0x61,0x72,0x61,0x6d,0x65,0x74,0x65,0x72,0x73,0x5b,0x00))
PictureDisplay(5,"80_queenant_st03",0,0,0,0,100,100,0,0)
PictureMove(5,null,0,0,0,0,100,100,255,0,30,true)
ShowMessageFace("queenant_fc1",1,0,2,12)
ShowMessage("\\n<クィーンアント>このような無法者の女王着任、認めるわけには参りません。")
ShowMessage("力に訴えてでも、阻止しましょう……")
PictureDisplay(5,"80_kumonomiko_st01",0,0,-160,0,100,100,255,0)
PictureDisplay(6,"80_queenant_st03",0,0,160,0,100,100,255,0)
ShowMessageFace("kumonomiko_fc1",0,0,2,13)
ShowMessage("\\n<蜘蛛之皇女>クィーンアントか……ふん、かえって都合が良いわ！")
ShowMessage("ここで貴様等を打ち倒し、投票権をもぎ取ってくれる！")
PictureDisplay(5,"80_queenbee_st03",0,0,-160,0,100,100,255,0)
PictureDisplay(6,"80_queenant_st03",0,0,160,0,100,100,255,0)
ShowMessageFace("queenbee_fc1",2,0,2,14)
ShowMessage("\\n<クィーンビー>そうはさせん、行くぞ！")
ShowMessageFace("queenant_fc1",1,0,2,15)
ShowMessage("\\n<クィーンアント>未来の暴君は、今ここで打ち倒します……！")
PictureClear(5)
PictureClear(6)
If(0,4,0)
 ShowMessageFace("alice_fc5",0,0,2,16)
 ShowMessage("\\n<Alice>まったく、面倒な事になったものだな……")
 ShowMessage("さて、どちらに加勢する？")
 0()
EndIf()
If(0,5,0)
 ShowMessageFace("iriasu_fc4",2,0,2,17)
 ShowMessage("\\n<Ilias>やれやれ、またも魔物の勢力争いですか……")
 ShowMessage("ルカ、どちらに味方するのです？")
 0()
EndIf()
ShowMessageFace("kumonomiko_fc1",0,0,2,18)
ShowMessage("\\n<蜘蛛之皇女>婿殿、妾は心を入れ替えたのだ。")
ShowMessage("お主の嫁となった妾は、決して暴君として振る舞わぬ事を誓おう。")
ShowMessageFace("queenant_fc1",1,0,2,19)
ShowMessage("\\n<クィーンアント>ルカ、騙されてはなりません。")
ShowMessage("この者は必ず、世の中に害をもたらすでしょう……")
ShowMessageFace("ruka_fc1",0,0,2,20)
ShowMessage("\\n<Luka>……………………")
ShowMessageFace("",0,0,2,21)
ShowMessage("さて、どちらに味方しようか……")
ShowChoices(strings("蜘蛛之皇女に味方する","クィーンアント達に味方する"),0)
IfPlayerPicksChoice(0,"蜘蛛之皇女に味方する")
 241(bytes(0x04,0x08,0x6f,0x3a,0x0d,0x52,0x50,0x47,0x3a,0x3a,0x42,0x47,0x4d,0x08,0x3a,0x0a,0x40,0x6e,0x61,0x6d,0x65,0x49,0x22,0x0a,0x62,0x6f,0x73,0x73,0x30,0x06,0x3a,0x06,0x45,0x54,0x3a,0x0c,0x40,0x76,0x6f,0x6c,0x75,0x6d,0x65,0x69,0x69,0x3a,0x0b,0x40,0x70,0x69,0x74,0x63,0x68,0x69,0x69))
 PictureDisplay(5,"80_queenbee_st03",0,0,-160,0,100,100,0,0)
 PictureDisplay(6,"80_queenant_st03",0,0,160,0,100,100,0,0)
 PictureMove(5,null,0,0,-160,0,100,100,255,0,30,false)
 PictureMove(6,null,0,0,160,0,100,100,255,0,30,true)
 ShowMessageFace("queenant_fc1",1,0,2,22)
 ShowMessage("\\n<クィーンアント>理解してはくれませんか……")
 ShowMessage("ならば、ここで力を持って止めます！")
 ShowMessageFace("queenbee_fc1",2,0,2,23)
 ShowMessage("\\n<クィーンビー>悪く思うな、勇者ルカ……")
 ShowMessage("蜘蛛之皇女に味方する以上、容赦はせぬぞ！")
 ShowMessageFace("kumonomiko_fc1",0,0,2,24)
 ShowMessage("\\n<蜘蛛之皇女>ゆくぞ、婿殿！")
 ShowMessage("この者達を倒し、投票権を奪うのだ！")
 PictureClear(5)
 PictureClear(6)
 SetBattleBGM(bytes(0x04,0x08,0x6f,0x3a,0x0d,0x52,0x50,0x47,0x3a,0x3a,0x42,0x47,0x4d,0x08,0x3a,0x0a,0x40,0x6e,0x61,0x6d,0x65,0x49,0x22,0x0a,0x62,0x6f,0x73,0x73,0x31,0x06,0x3a,0x06,0x45,0x54,0x3a,0x0c,0x40,0x76,0x6f,0x6c,0x75,0x6d,0x65,0x69,0x69,0x3a,0x0b,0x40,0x70,0x69,0x74,0x63,0x68,0x69,0x69))
 ChangeSwitch(22,22,0)
 Battle(0,981,false,false)
 ChangeSwitch(22,22,1)
 SetBattleBGM(bytes(0x04,0x08,0x6f,0x3a,0x0d,0x52,0x50,0x47,0x3a,0x3a,0x42,0x47,0x4d,0x08,0x3a,0x0a,0x40,0x6e,0x61,0x6d,0x65,0x49,0x22,0x0b,0x62,0x61,0x74,0x74,0x6c,0x65,0x06,0x3a,0x06,0x45,0x54,0x3a,0x0c,0x40,0x76,0x6f,0x6c,0x75,0x6d,0x65,0x69,0x69,0x3a,0x0b,0x40,0x70,0x69,0x74,0x63,0x68,0x69,0x69))
 241(bytes(0x04,0x08,0x6f,0x3a,0x0d,0x52,0x50,0x47,0x3a,0x3a,0x42,0x47,0x4d,0x08,0x3a,0x0a,0x40,0x6e,0x61,0x6d,0x65,0x49,0x22,0x14,0x73,0x63,0x65,0x6e,0x65,0x5f,0x65,0x70,0x69,0x6c,0x6f,0x67,0x75,0x65,0x32,0x06,0x3a,0x06,0x45,0x54,0x3a,0x0c,0x40,0x76,0x6f,0x6c,0x75,0x6d,0x65,0x69,0x69,0x3a,0x0b,0x40,0x70,0x69,0x74,0x63,0x68,0x69,0x69))
 If(0,1245,0)
  355("add_stand_actor(245)")
  0()
 EndIf()
 If(0,1268,0)
  355("add_stand_actor(268)")
  0()
 EndIf()
 PictureDisplay(5,"80_queenbee_st03",0,0,-160,0,100,100,0,0)
 PictureDisplay(6,"80_queenant_st03",0,0,160,0,100,100,0,0)
 PictureMove(5,null,0,0,-160,0,100,100,255,0,30,false)
 PictureMove(6,null,0,0,160,0,100,100,255,0,30,true)
 ShowMessageFace("queenant_fc1",1,0,2,25)
 ShowMessage("\\n<クィーンアント>くっ、無念です……")
 ShowMessageFace("queenbee_fc1",2,0,2,26)
 ShowMessage("\\n<クィーンビー>おのれ……")
 PictureClear(6)
 PictureDisplay(5,"80_kumonomiko_st01",0,0,0,0,100,100,255,0)
 ShowMessageFace("kumonomiko_fc1",0,0,2,27)
 ShowMessage("\\n<蜘蛛之皇女>ふふふ、我等の勝利よ……")
 ShowMessage("お前達の投票権は頂いたぞ！")
 250(bytes(0x04,0x08,0x6f,0x3a,0x0c,0x52,0x50,0x47,0x3a,0x3a,0x53,0x45,0x08,0x3a,0x0a,0x40,0x6e,0x61,0x6d,0x65,0x49,0x22,0x0a,0x49,0x74,0x65,0x6d,0x31,0x06,0x3a,0x06,0x45,0x54,0x3a,0x0b,0x40,0x70,0x69,0x74,0x63,0x68,0x69,0x69,0x3a,0x0c,0x40,0x76,0x6f,0x6c,0x75,0x6d,0x65,0x69,0x55))
 ChangeInventory_Item(558,0,0,2)
 If(0,6,0)
  ShowMessageFace("sonia_fc2",2,0,2,28)
  ShowMessage("\\n<Sonya>投票権って、権利じゃなくて投票券だったんだ……")
  0()
 EndIf()
 ShowMessageFace("kumonomiko_fc1",0,0,2,29)
 ShowMessage("\\n<蜘蛛之皇女>妾の分と合わせて、この三枚に我が名を書き込み……")
 ShowMessage("よし、これで過半数を超えたぞ！")
 250(bytes(0x04,0x08,0x6f,0x3a,0x0c,0x52,0x50,0x47,0x3a,0x3a,0x53,0x45,0x08,0x3a,0x0a,0x40,0x6e,0x61,0x6d,0x65,0x49,0x22,0x11,0x6d,0x6f,0x6e,0x5f,0x66,0x61,0x6e,0x66,0x61,0x6c,0x65,0x33,0x06,0x3a,0x06,0x45,0x54,0x3a,0x0b,0x40,0x70,0x69,0x74,0x63,0x68,0x69,0x69,0x3a,0x0c,0x40,0x76,0x6f,0x6c,0x75,0x6d,0x65,0x69,0x69))
 ShowMessageFace("",0,0,2,30)
 ShowMessage("蜘蛛之皇女はクィーンインセクトとなった！")
 ShowMessageFace("queenant_fc1",1,0,2,31)
 ShowMessage("\\n<クィーンアント>なんという事でしょう……")
 ShowMessage("再び、暴君が君臨するなんて……")
 ShowMessageFace("kumonomiko_fc1",0,0,2,32)
 ShowMessage("\\n<蜘蛛之皇女>言ったであろうが、もはや妾は暴君ではない。")
 ShowMessage("婿殿と出会い、愛を知ったのだ！")
 ShowMessageFace("queenant_fc1",1,0,2,33)
 ShowMessage("\\n<クィーンアント>勇者ルカ……")
 ShowMessage("くれぐれも、この者が暴走しないよう目を光らせて下さいね……")
 ShowMessageFace("ruka_fc1",0,0,2,34)
 ShowMessage("\\n<Luka>う、うん……")
 ShowMessageFace("kumonomiko_fc1",1,0,2,35)
 ShowMessage("\\n<蜘蛛之皇女>これで念願叶い、妾は再び女王の座に返り咲いた。")
 ShowMessage("それでは婿殿……この身も心も、お主に捧げようぞ！")
 PictureClear(5)
 205(47,bytes(0x04,0x08,0x6f,0x3a,0x13,0x52,0x50,0x47,0x3a,0x3a,0x4d,0x6f,0x76,0x65,0x52,0x6f,0x75,0x74,0x65,0x09,0x3a,0x0c,0x40,0x72,0x65,0x70,0x65,0x61,0x74,0x46,0x3a,0x0f,0x40,0x73,0x6b,0x69,0x70,0x70,0x61,0x62,0x6c,0x65,0x46,0x3a,0x0a,0x40,0x77,0x61,0x69,0x74,0x54,0x3a,0x0a,0x40,0x6c,0x69,0x73,0x74,0x5b,0x0a,0x6f,0x3a,0x15,0x52,0x50,0x47,0x3a,0x3a,0x4d,0x6f,0x76,0x65,0x43,0x6f,0x6d,0x6d,0x61,0x6e,0x64,0x07,0x3a,0x0a,0x40,0x63,0x6f,0x64,0x65,0x69,0x2a,0x3a,0x10,0x40,0x70,0x61,0x72,0x61,0x6d,0x65,0x74,0x65,0x72,0x73,0x5b,0x00,0x6f,0x3b,0x0a,0x07,0x3b,0x0b,0x69,0x08,0x3b,0x0c,0x5b,0x00,0x6f,0x3b,0x0a,0x07,0x3b,0x0b,0x69,0x06,0x3b,0x0c,0x5b,0x00,0x6f,0x3b,0x0a,0x07,0x3b,0x0b,0x69,0x2c,0x3b,0x0c,0x5b,0x00,0x6f,0x3b,0x0a,0x07,0x3b,0x0b,0x69,0x00,0x3b,0x0c,0x5b,0x00))
 505(bytes(0x04,0x08,0x6f,0x3a,0x15,0x52,0x50,0x47,0x3a,0x3a,0x4d,0x6f,0x76,0x65,0x43,0x6f,0x6d,0x6d,0x61,0x6e,0x64,0x07,0x3a,0x0a,0x40,0x63,0x6f,0x64,0x65,0x69,0x2a,0x3a,0x10,0x40,0x70,0x61,0x72,0x61,0x6d,0x65,0x74,0x65,0x72,0x73,0x5b,0x00))
 505(bytes(0x04,0x08,0x6f,0x3a,0x15,0x52,0x50,0x47,0x3a,0x3a,0x4d,0x6f,0x76,0x65,0x43,0x6f,0x6d,0x6d,0x61,0x6e,0x64,0x07,0x3a,0x0a,0x40,0x63,0x6f,0x64,0x65,0x69,0x08,0x3a,0x10,0x40,0x70,0x61,0x72,0x61,0x6d,0x65,0x74,0x65,0x72,0x73,0x5b,0x00))
 505(bytes(0x04,0x08,0x6f,0x3a,0x15,0x52,0x50,0x47,0x3a,0x3a,0x4d,0x6f,0x76,0x65,0x43,0x6f,0x6d,0x6d,0x61,0x6e,0x64,0x07,0x3a,0x0a,0x40,0x63,0x6f,0x64,0x65,0x69,0x06,0x3a,0x10,0x40,0x70,0x61,0x72,0x61,0x6d,0x65,0x74,0x65,0x72,0x73,0x5b,0x00))
 505(bytes(0x04,0x08,0x6f,0x3a,0x15,0x52,0x50,0x47,0x3a,0x3a,0x4d,0x6f,0x76,0x65,0x43,0x6f,0x6d,0x6d,0x61,0x6e,0x64,0x07,0x3a,0x0a,0x40,0x63,0x6f,0x64,0x65,0x69,0x2c,0x3a,0x10,0x40,0x70,0x61,0x72,0x61,0x6d,0x65,0x74,0x65,0x72,0x73,0x5b,0x00))
 355("add_actor_ex(334)")
 If(12,"actor_class_level_over?(334, 317, 1)")
  0()
 Else()
  355("set_class_level(334, 317, 1, false, true)")
  314(0,334)
  0()
 EndIf()
 249(bytes(0x04,0x08,0x6f,0x3a,0x0c,0x52,0x50,0x47,0x3a,0x3a,0x4d,0x45,0x08,0x3a,0x0a,0x40,0x6e,0x61,0x6d,0x65,0x49,0x22,0x0c,0x66,0x61,0x6e,0x66,0x61,0x6c,0x65,0x06,0x3a,0x06,0x45,0x54,0x3a,0x0b,0x40,0x70,0x69,0x74,0x63,0x68,0x69,0x69,0x3a,0x0c,0x40,0x76,0x6f,0x6c,0x75,0x6d,0x65,0x69,0x69))
 ShowMessageFace("",0,0,2,36)
 ShowMessage("蜘蛛之皇女が仲間に加わった！")
 ChangeSwitch(2280,2280,0)
 Wait(60)
 ShowMessageFace("kumonomiko_fc1",1,0,2,37)
 ShowMessage("\\n<蜘蛛之皇女>それでは婿殿……")
 ShowMessage("さっそく今夜、契りを交わそうぞ……")
 If(0,6,0)
  ShowMessageFace("sonia_fc2",4,0,2,38)
  ShowMessage("\\n<Sonya>ギギ……ググ……！")
  ShowMessageFace("kumonomiko_fc1",0,0,2,39)
  ShowMessage("\\n<蜘蛛之皇女>おうおう、奇妙な虫の鳴き声がするのう。")
  ShowMessage("婿殿、あのお邪魔虫の名は何と言う？")
  ShowMessageFace("ruka_fc1",0,0,2,40)
  ShowMessage("\\n<Luka>ソニアだけど……")
  ShowMessageFace("kumonomiko_fc1",0,0,2,41)
  ShowMessage("\\n<蜘蛛之皇女>人の恋路を邪魔する虫は、馬に蹴られて死ぬという。")
  ShowMessage("ソニアなるお邪魔虫、せいぜい馬には気を付けるが良い。")
  ShowMessageFace("sonia_fc3",1,0,2,42)
  ShowMessage("\\n<Sonya>ギギギ……絶対に許さないから……！")
  ShowMessageFace("ruka_fc1",0,0,2,43)
  ShowMessage("\\n<Luka>なんだか、ギスギスした空気だなぁ……")
  ShowMessage("みんな、もっと落ち着こうよ。")
  ShowMessageFace("sonia_fc2",7,0,2,44)
  ShowMessage("\\n<Sonya>ルカが腑抜け過ぎてるんでしょ！")
  ShowMessageFace("kumonomiko_fc1",0,0,2,45)
  ShowMessage("\\n<蜘蛛之皇女>おうおう、お邪魔虫が顔を真っ赤にして怒鳴っておる。")
  ShowMessage("怖い怖い……婿殿、慰めてくれんかのう？")
  ShowMessageFace("sonia_fc3",1,0,2,46)
  ShowMessage("\\n<Sonya>ググ……ギギギ……！")
  0()
 EndIf()
 0()
IfPlayerPicksChoice(1,"クィーンアント達に味方する")
 241(bytes(0x04,0x08,0x6f,0x3a,0x0d,0x52,0x50,0x47,0x3a,0x3a,0x42,0x47,0x4d,0x08,0x3a,0x0a,0x40,0x6e,0x61,0x6d,0x65,0x49,0x22,0x0a,0x62,0x6f,0x73,0x73,0x30,0x06,0x3a,0x06,0x45,0x54,0x3a,0x0c,0x40,0x76,0x6f,0x6c,0x75,0x6d,0x65,0x69,0x69,0x3a,0x0b,0x40,0x70,0x69,0x74,0x63,0x68,0x69,0x69))
 PictureDisplay(5,"80_kumonomiko_st03",0,0,0,0,100,100,0,0)
 PictureMove(5,null,0,0,0,0,100,100,255,0,30,true)
 ShowMessageFace("kumonomiko_fc1",2,0,2,47)
 ShowMessage("\\n<蜘蛛之皇女>おお、婿殿……これも恋の駆け引きか？")
 ShowMessage("ここで戦う宿命とは、引き裂かれし男と女……")
 If(0,6,0)
  ShowMessageFace("sonia_fc1",3,0,2,48)
  ShowMessage("\\n<Sonya>さあ、全力でボコボコにするわよ！")
  0()
 EndIf()
 If(0,1245,0)
  355("add_stand_actor(245)")
  0()
 EndIf()
 If(0,1268,0)
  355("add_stand_actor(268)")
  0()
 EndIf()
 PictureClear(5)
 SetBattleBGM(bytes(0x04,0x08,0x6f,0x3a,0x0d,0x52,0x50,0x47,0x3a,0x3a,0x42,0x47,0x4d,0x08,0x3a,0x0a,0x40,0x6e,0x61,0x6d,0x65,0x49,0x22,0x0a,0x62,0x6f,0x73,0x73,0x31,0x06,0x3a,0x06,0x45,0x54,0x3a,0x0c,0x40,0x76,0x6f,0x6c,0x75,0x6d,0x65,0x69,0x69,0x3a,0x0b,0x40,0x70,0x69,0x74,0x63,0x68,0x69,0x69))
 ChangeSwitch(22,22,0)
 Battle(0,807,false,false)
 ChangeSwitch(22,22,1)
 SetBattleBGM(bytes(0x04,0x08,0x6f,0x3a,0x0d,0x52,0x50,0x47,0x3a,0x3a,0x42,0x47,0x4d,0x08,0x3a,0x0a,0x40,0x6e,0x61,0x6d,0x65,0x49,0x22,0x0b,0x62,0x61,0x74,0x74,0x6c,0x65,0x06,0x3a,0x06,0x45,0x54,0x3a,0x0c,0x40,0x76,0x6f,0x6c,0x75,0x6d,0x65,0x69,0x69,0x3a,0x0b,0x40,0x70,0x69,0x74,0x63,0x68,0x69,0x69))
 241(bytes(0x04,0x08,0x6f,0x3a,0x0d,0x52,0x50,0x47,0x3a,0x3a,0x42,0x47,0x4d,0x08,0x3a,0x0a,0x40,0x6e,0x61,0x6d,0x65,0x49,0x22,0x14,0x73,0x63,0x65,0x6e,0x65,0x5f,0x65,0x70,0x69,0x6c,0x6f,0x67,0x75,0x65,0x32,0x06,0x3a,0x06,0x45,0x54,0x3a,0x0c,0x40,0x76,0x6f,0x6c,0x75,0x6d,0x65,0x69,0x69,0x3a,0x0b,0x40,0x70,0x69,0x74,0x63,0x68,0x69,0x69))
 PictureDisplay(5,"80_kumonomiko_st03",0,0,0,0,100,100,0,0)
 PictureMove(5,null,0,0,0,0,100,100,255,0,30,true)
 ShowMessageFace("kumonomiko_fc1",2,0,2,49)
 ShowMessage("\\n<蜘蛛之皇女>なんと……無念……")
 ShowMessage("妾の大望、婿殿にくじかれるとは……")
 PictureDisplay(5,"80_queenbee_st01",0,0,-160,0,100,100,255,0)
 PictureDisplay(6,"80_queenant_st01",0,0,160,0,100,100,255,0)
 ShowMessageFace("queenant_fc1",0,0,2,50)
 ShowMessage("\\n<クィーンアント>ありがとうございます、勇者ルカ。")
 ShowMessage("おかげで、投票権を守り通せました。")
 ShowMessageFace("queenbee_fc1",0,0,2,51)
 ShowMessage("\\n<クィーンビー>こうした事が起きるのも、クィーンインセクトの座が空位であるから。")
 ShowMessage("いっそここで、女王位を決するのはどうだ？")
 ShowMessageFace("queenant_fc1",0,0,2,52)
 ShowMessage("\\n<クィーンアント>しかし、適任者は……")
 ShowMessageFace("queenbee_fc1",0,0,2,53)
 ShowMessage("\\n<クィーンビー>お主で良いであろう、クィーンアント。")
 ShowMessage("経歴も能力も、十分に資格はあろうというもの。")
 ShowMessageFace("queenant_fc1",0,0,2,54)
 ShowMessage("\\n<クィーンアント>……………………")
 ShowMessageFace("queenant_fc1",0,0,2,55)
 ShowMessage("\\n<クィーンアント>……分かりました、妾がクィーンインセクトとなりましょう。")
 ShowMessage("女王位を空位にしておく事の危険性、今回の一件で思い知りました。")
 ShowMessageFace("queenbee_fc1",0,0,2,56)
 ShowMessage("\\n<クィーンビー>そういうわけで、蜘蛛之皇女よ。")
 ShowMessage("お主の投票権、我々に渡してもらうぞ。")
 ShowMessageFace("kumonomiko_fc1",2,0,2,57)
 ShowMessage("\\n<蜘蛛之皇女>しょせん、妾は敗者……好きにするが良い。")
 250(bytes(0x04,0x08,0x6f,0x3a,0x0c,0x52,0x50,0x47,0x3a,0x3a,0x53,0x45,0x08,0x3a,0x0a,0x40,0x6e,0x61,0x6d,0x65,0x49,0x22,0x11,0x6d,0x6f,0x6e,0x5f,0x66,0x61,0x6e,0x66,0x61,0x6c,0x65,0x33,0x06,0x3a,0x06,0x45,0x54,0x3a,0x0b,0x40,0x70,0x69,0x74,0x63,0x68,0x69,0x69,0x3a,0x0c,0x40,0x76,0x6f,0x6c,0x75,0x6d,0x65,0x69,0x69))
 If(12,"actor_class_level_over?(268, 317, 1)")
  0()
 Else()
  355("set_class_level(268, 310, 10, false, false)")
  655("set_class_level(268, 311, 10, false, false)")
  655("set_class_level(268, 313, 10, false, false)")
  655("set_class_level(268, 314, 10, false, false)")
  655("set_class_level(268, 315, 10, false, false)")
  655("set_class_level(268, 317, 1, false, true)")
  0()
 EndIf()
 ShowMessageFace("",0,0,2,58)
 ShowMessage("クィーンアントに三票が集まり、過半数を上回った！")
 ShowMessage("クィーンアントはクィーンインセクトになった！")
 ShowMessageFace("queenant_fc1",0,0,2,59)
 ShowMessage("\\n<クィーンアント>身に余る職務ですが、精一杯がんばっていきましょう。")
 ShowMessage("今後とも、よろしくお願いいたします。")
 ShowMessageFace("queenbee_fc1",0,0,2,60)
 ShowMessage("\\n<クィーンビー>これで、昆虫族もしばらくは安泰よ。")
 ShowMessage("勇者ルカ、礼を言うぞ。")
 ShowMessageFace("kumonomiko_fc1",2,0,2,61)
 ShowMessage("\\n<蜘蛛之皇女>ぐぬぬ………")
 PictureClear(5)
 PictureClear(6)
 ShowMessageFace("",0,0,2,62)
 ShowMessage("こうして――")
 ShowMessage("蜘蛛之皇女の夢は断たれ、クィーンアントが女王になったのだった。")
 ChangeSwitch(2281,2281,0)
 0()
404()
Wait(30)
221()
Wait(60)
ChangeSwitch(2279,2279,1)
ChangeSwitch(100,100,1)
ChangeSwitch(32,32,1)
TeleportPlayer(0,2,303,216,2,2)
222()
355("gain_medal(2103)")
EndEventProcessing()
0()
